{
    "openapi": "3.0.0",
    "info": {
        "title": "rtn api",
        "description": "Add your description",
        "license": {
            "name": "MIT",
            "url": ""
        },
        "termsOfService": "",
        "version": "1.0.0"
    },
    "servers": [],
    "components": {
        "schemas": {
            "ExtractMarketData": {
                "description": "ExtractMarketData",
                "required": [
                    "sort",
                    "coinCode",
                    "priceLast",
                    "volume",
                    "quoteVolume",
                    "riseAndFall",
                    "highPrice",
                    "lowPrice",
                    "precision",
                    "volumePrecision",
                    "marketPricePrecision",
                    "tradePrecision",
                    "tradeInputPrecision",
                    "tradeVolumePrecision",
                    "symbolPrecision",
                    "orderBaseMax",
                    "marketFreezeBuffer",
                    "orderBaseMin",
                    "orderQuoteMax",
                    "orderQuoteMin",
                    "ask",
                    "bid",
                    "orderMax",
                    "orderMin",
                    "symbol",
                    "priceList",
                    "priceLastRise",
                    "baseCurrencyKey",
                    "allowTrade",
                    "state"
                ],
                "type": "object",
                "properties": {
                    "sort": {
                        "description": "",
                        "type": "number"
                    },
                    "coinCode": {
                        "description": "",
                        "type": "string"
                    },
                    "priceLast": {
                        "description": "",
                        "type": "string"
                    },
                    "volume": {
                        "description": "",
                        "type": "string"
                    },
                    "quoteVolume": {
                        "description": "",
                        "type": "string"
                    },
                    "riseAndFall": {
                        "description": "",
                        "type": "string"
                    },
                    "highPrice": {
                        "description": "",
                        "type": "string"
                    },
                    "lowPrice": {
                        "description": "",
                        "type": "string"
                    },
                    "precision": {
                        "description": "",
                        "type": "number"
                    },
                    "volumePrecision": {
                        "description": "",
                        "type": "number"
                    },
                    "marketPricePrecision": {
                        "description": "",
                        "type": "number"
                    },
                    "tradePrecision": {
                        "description": "",
                        "type": "number"
                    },
                    "tradeInputPrecision": {
                        "description": "",
                        "type": "number"
                    },
                    "tradeVolumePrecision": {
                        "description": "",
                        "type": "number"
                    },
                    "symbolPrecision": {
                        "description": "",
                        "type": "number"
                    },
                    "orderBaseMax": {
                        "description": "",
                        "type": "number"
                    },
                    "marketFreezeBuffer": {
                        "description": "",
                        "type": "number"
                    },
                    "orderBaseMin": {
                        "description": "",
                        "type": "number"
                    },
                    "orderQuoteMax": {
                        "description": "",
                        "type": "number"
                    },
                    "orderQuoteMin": {
                        "description": "",
                        "type": "number"
                    },
                    "ask": {
                        "description": "",
                        "type": "number"
                    },
                    "bid": {
                        "description": "",
                        "type": "number"
                    },
                    "orderMax": {
                        "description": "",
                        "type": "number"
                    },
                    "orderMin": {
                        "description": "",
                        "type": "number"
                    },
                    "symbol": {
                        "description": "",
                        "type": "string"
                    },
                    "priceList": {
                        "description": "",
                        "type": "array",
                        "items": {
                            "type": "number"
                        }
                    },
                    "priceLastRise": {
                        "description": "",
                        "type": "number"
                    },
                    "baseCurrencyKey": {
                        "description": "",
                        "type": "string"
                    },
                    "allowTrade": {
                        "description": "",
                        "type": "boolean"
                    },
                    "state": {
                        "description": "",
                        "type": "number"
                    }
                }
            },
            "RtnMarketSymbols": {
                "description": "",
                "required": [
                    "data",
                    "isSuccess"
                ],
                "type": "object",
                "properties": {
                    "data": {
                        "description": "",
                        "type": "array",
                        "items": {
                            "$ref": "#/components/schemas/ExtractMarketData"
                        }
                    },
                    "isSuccess": {
                        "description": "",
                        "nullable": true,
                        "type": "boolean"
                    },
                    "eventUpdateEventId": {
                        "description": "",
                        "type": "string"
                    }
                }
            },
            "ExtractZoneBean": {
                "description": "",
                "required": [
                    "key",
                    "name",
                    "picPaths",
                    "order",
                    "status",
                    "fallCount",
                    "leadingPercent",
                    "riseCount",
                    "percent"
                ],
                "type": "object",
                "properties": {
                    "key": {
                        "description": "",
                        "type": "string"
                    },
                    "name": {
                        "description": "",
                        "type": "string"
                    },
                    "picPaths": {
                        "description": "",
                        "type": "array",
                        "items": {
                            "type": "string"
                        }
                    },
                    "currencies": {
                        "description": "",
                        "nullable": true,
                        "type": "object"
                    },
                    "order": {
                        "description": "",
                        "type": "number"
                    },
                    "status": {
                        "description": "",
                        "type": "number"
                    },
                    "leadingCurrency": {
                        "description": "",
                        "nullable": true,
                        "type": "string"
                    },
                    "fallCount": {
                        "description": "",
                        "type": "number"
                    },
                    "leadingPercent": {
                        "description": "",
                        "type": "number"
                    },
                    "riseCount": {
                        "description": "",
                        "type": "number"
                    },
                    "percent": {
                        "description": "",
                        "type": "number"
                    },
                    "bars": {
                        "description": "",
                        "nullable": true,
                        "type": "array",
                        "items": {
                            "type": "string"
                        }
                    }
                }
            },
            "RtnExtractZoneBean": {
                "description": "",
                "required": [
                    "data",
                    "isSuccess"
                ],
                "type": "object",
                "properties": {
                    "data": {
                        "description": "",
                        "type": "array",
                        "items": {
                            "$ref": "#/components/schemas/ExtractZoneBean"
                        }
                    },
                    "isSuccess": {
                        "description": "",
                        "nullable": true,
                        "type": "boolean"
                    },
                    "eventUpdateEventId": {
                        "description": "",
                        "type": "string"
                    }
                }
            },
            "ZoneHeader": {
                "description": "",
                "required": [
                    "allRiseAndFall",
                    "riseCount",
                    "fallCount",
                    "leadingCurrency",
                    "leadingCurrencyRise"
                ],
                "type": "object",
                "properties": {
                    "allRiseAndFall": {
                        "description": "",
                        "type": "number"
                    },
                    "riseCount": {
                        "description": "",
                        "type": "number"
                    },
                    "fallCount": {
                        "description": "",
                        "type": "number"
                    },
                    "leadingCurrency": {
                        "description": "",
                        "type": "string"
                    },
                    "leadingCurrencyRise": {
                        "description": "",
                        "type": "number"
                    }
                }
            },
            "ExtractZoneDetail": {
                "description": "",
                "required": [
                    "header",
                    "symbolList"
                ],
                "type": "object",
                "properties": {
                    "header": {
                        "description": "",
                        "$ref": "#/components/schemas/ZoneHeader"
                    },
                    "symbolList": {
                        "description": "",
                        "type": "array",
                        "items": {
                            "$ref": "#/components/schemas/ExtractMarketData"
                        }
                    }
                }
            },
            "RtnExtractZoneDetail": {
                "description": "",
                "required": [
                    "data",
                    "isSuccess"
                ],
                "type": "object",
                "properties": {
                    "data": {
                        "description": "",
                        "$ref": "#/components/schemas/ExtractZoneDetail"
                    },
                    "isSuccess": {
                        "description": "",
                        "nullable": true,
                        "type": "boolean"
                    },
                    "eventUpdateEventId": {
                        "description": "",
                        "type": "string"
                    }
                }
            }
        }
    },
    "paths": {
        "market/PlatformKikiMarketRtn/getMarketDataDetail": {
            "get": {
                "deprecated": false,
                "summary": "",
                "security": [],
                "responses": {
                    "200": {
                        "description": "success response",
                        "content": {
                            "application/json": {
                                "schema": {
                                    "$ref": "#/components/schemas/RtnMarketSymbols"
                                }
                            }
                        }
                    }
                },
                "parameters": [
                    {
                        "name": "routeKey",
                        "in": "query",
                        "description": "routeKey",
                        "required": true,
                        "deprecated": false,
                        "schema": {
                            "type": "string"
                        }
                    },
                    {
                        "name": "symbolNames",
                        "in": "query",
                        "description": "symbolNames null 表示获取全部",
                        "required": true,
                        "deprecated": false,
                        "schema": {
                            "nullable": true,
                            "type": "array",
                            "items": {
                                "type": "string"
                            }
                        }
                    }
                ],
                "tags": [
                    "network"
                ],
                "operationId": "getMarketDataDetail"
            }
        },
        "market/PlatformKikiMarketRtn/getOfflineMarketDataDetail": {
            "get": {
                "deprecated": false,
                "summary": "",
                "security": [],
                "responses": {
                    "200": {
                        "description": "success response",
                        "content": {
                            "application/json": {
                                "schema": {
                                    "$ref": "#/components/schemas/RtnMarketSymbols"
                                }
                            }
                        }
                    }
                },
                "parameters": [
                    {
                        "name": "routeKey",
                        "in": "query",
                        "description": "routeKey",
                        "required": true,
                        "deprecated": false,
                        "schema": {
                            "type": "string"
                        }
                    }
                ],
                "tags": [
                    "network"
                ],
                "operationId": "getOfflineMarketDataDetail"
            }
        },
        "market/PlatformKikiMarketRtn/getZoneListDetails": {
            "get": {
                "deprecated": false,
                "summary": "",
                "security": [],
                "responses": {
                    "200": {
                        "description": "success response",
                        "content": {
                            "application/json": {
                                "schema": {
                                    "$ref": "#/components/schemas/RtnExtractZoneBean"
                                }
                            }
                        }
                    }
                },
                "parameters": [
                    {
                        "name": "routeKey",
                        "in": "query",
                        "description": "routeKey",
                        "required": true,
                        "deprecated": false,
                        "schema": {
                            "type": "string"
                        }
                    },
                    {
                        "name": "maxRefreshTimeout",
                        "in": "query",
                        "description": "maxRefreshTimeout",
                        "required": true,
                        "deprecated": false,
                        "schema": {
                            "type": "number"
                        }
                    }
                ],
                "tags": [
                    "network"
                ],
                "operationId": "getZoneListDetails"
            }
        },
        "market/PlatformKikiMarketRtn/getZoneDetail": {
            "get": {
                "deprecated": false,
                "summary": "",
                "security": [],
                "responses": {
                    "200": {
                        "description": "success response",
                        "content": {
                            "application/json": {
                                "schema": {
                                    "$ref": "#/components/schemas/RtnExtractZoneDetail"
                                }
                            }
                        }
                    }
                },
                "parameters": [
                    {
                        "name": "routeKey",
                        "in": "query",
                        "description": "routeKey",
                        "required": true,
                        "deprecated": false,
                        "schema": {
                            "type": "string"
                        }
                    },
                    {
                        "name": "zoneKey",
                        "in": "query",
                        "description": "zoneKey",
                        "required": true,
                        "deprecated": false,
                        "schema": {
                            "type": "string"
                        }
                    },
                    {
                        "name": "sortName",
                        "in": "query",
                        "description": "sortName",
                        "required": true,
                        "deprecated": false,
                        "schema": {
                            "type": "string"
                        }
                    },
                    {
                        "name": "sortType",
                        "in": "query",
                        "description": "sortType",
                        "required": true,
                        "deprecated": false,
                        "schema": {
                            "type": "string"
                        }
                    }
                ],
                "tags": [
                    "network"
                ],
                "operationId": "getZoneDetail"
            }
        },
        "market/PlatformKikiMarketRtn/getZoneDetailSymbols": {
            "get": {
                "deprecated": false,
                "summary": "",
                "security": [],
                "responses": {
                    "200": {
                        "description": "success response",
                        "content": {
                            "application/json": {
                                "schema": {
                                    "$ref": "#/components/schemas/RtnMarketSymbols"
                                }
                            }
                        }
                    }
                },
                "parameters": [
                    {
                        "name": "routeKey",
                        "in": "query",
                        "description": "routeKey",
                        "required": true,
                        "deprecated": false,
                        "schema": {
                            "type": "string"
                        }
                    },
                    {
                        "name": "zoneKey",
                        "in": "query",
                        "description": "zoneKey",
                        "required": true,
                        "deprecated": false,
                        "schema": {
                            "type": "string"
                        }
                    },
                    {
                        "name": "sortName",
                        "in": "query",
                        "description": "sortName",
                        "required": true,
                        "deprecated": false,
                        "schema": {
                            "type": "string"
                        }
                    },
                    {
                        "name": "sortType",
                        "in": "query",
                        "description": "sortType",
                        "required": true,
                        "deprecated": false,
                        "schema": {
                            "type": "string"
                        }
                    }
                ],
                "tags": [
                    "network"
                ],
                "operationId": "getZoneDetailSymbols"
            }
        },
        "market/PlatformKikiMarketRtn/getMarketDetailTabZoneDataList": {
            "get": {
                "deprecated": false,
                "summary": "",
                "security": [],
                "responses": {
                    "200": {
                        "description": "success response",
                        "content": {
                            "application/json": {
                                "schema": {
                                    "$ref": "#/components/schemas/RtnExtractZoneBean"
                                }
                            }
                        }
                    }
                },
                "parameters": [
                    {
                        "name": "routeKey",
                        "in": "query",
                        "description": "routeKey",
                        "required": true,
                        "deprecated": false,
                        "schema": {
                            "type": "string"
                        }
                    },
                    {
                        "name": "num",
                        "in": "query",
                        "description": "num",
                        "required": true,
                        "deprecated": false,
                        "schema": {
                            "type": "number"
                        }
                    }
                ],
                "tags": [
                    "network"
                ],
                "operationId": "getMarketDetailTabZoneDataList"
            }
        },
        "market/PlatformKikiMarketRtn/getMarketDetailByCondition": {
            "get": {
                "deprecated": false,
                "summary": "",
                "security": [],
                "responses": {
                    "200": {
                        "description": "success response",
                        "content": {
                            "application/json": {
                                "schema": {
                                    "$ref": "#/components/schemas/RtnMarketSymbols"
                                }
                            }
                        }
                    }
                },
                "parameters": [
                    {
                        "name": "routeKey",
                        "in": "query",
                        "description": "routeKey",
                        "required": true,
                        "deprecated": false,
                        "schema": {
                            "type": "string"
                        }
                    },
                    {
                        "name": "baseCurrency",
                        "in": "query",
                        "description": "baseCurrency",
                        "required": true,
                        "deprecated": false,
                        "schema": {
                            "type": "string"
                        }
                    },
                    {
                        "name": "zoneKey",
                        "in": "query",
                        "description": "zoneKey",
                        "required": true,
                        "deprecated": false,
                        "schema": {
                            "type": "string"
                        }
                    },
                    {
                        "name": "sortName",
                        "in": "query",
                        "description": "sortName",
                        "required": true,
                        "deprecated": false,
                        "schema": {
                            "type": "string"
                        }
                    },
                    {
                        "name": "sortType",
                        "in": "query",
                        "description": "sortType",
                        "required": true,
                        "deprecated": false,
                        "schema": {
                            "type": "string"
                        }
                    }
                ],
                "tags": [
                    "network"
                ],
                "operationId": "getMarketDetailByCondition"
            }
        }
    },
    "tags": [
        {
            "name": "network",
            "description": ""
        }
    ]
}